…
```
## The following objects are masked from 'package:base':
## 
##     intersect, setdiff, setequal, union
```

```r
library(ggplot2)
sub_activity = subset(activity,!is.na(steps),select = c(steps,date))
STPD = summarise(group_by(sub_activity,date),steps = sum(steps))
print(STPD)
```

```
## # A tibble: 53 x 2
##    date       steps
##    <fct>      <int>
##  1 2012-10-02   126
##  2 2012-10-03 11352
##  3 2012-10-04 12116
##  4 2012-10-05 13294
##  5 2012-10-06 15420
##  6 2012-10-07 11015
##  7 2012-10-09 12811
##  8 2012-10-10  9900
##  9 2012-10-11 10304
## 10 2012-10-12 17382
## # ... with 43 more rows
```
…
```r
data = read.csv('activity.csv')
sub_activity = subset(data,!is.na(steps),select = c(steps,date))
data$steps[is.na(data$steps)] = mean(sub_activity$steps)
STPD = summarise(group_by(data,date),steps = sum(steps))
print(STPD)
```

```
## # A tibble: 61 x 2
##    date        steps
##    <fct>       <dbl>
##  1 2012-10-01 10766.
##  2 2012-10-02   126 
##  3 2012-10-03 11352 
##  4 2012-10-04 12116 
##  5 2012-10-05 13294 
##  6 2012-10-06 15420 
##  7 2012-10-07 11015 
##  8 2012-10-08 10766.
##  9 2012-10-09 12811 
## 10 2012-10-10  9900 
## # ... with 51 more rows
```
…
